{
    "js": {
        "outputFolder": "public/js"
    },
    "css": {
        "outputFolder": "public/css",
        "less": {
            "folder": "../../angular/"
        },
        "autoprefix": {
    		"enabled": true
    	}
    }
}
